nClientes;tempoMedioDeEsperaClientesEmFila;tempoMedioDeAtendimentoClientesEmCaixa;tempoMaximoEsperaFila;tempoMinutosCaixasTotalOcupadas;tempoMinutosCaixasTotalLivres;taxaOcupacaoCaixasTotal;mediaClientesEspera
1958;4190,23;60,49;9386,00;1975,85;4,15;1,00;268,74
1950;3162,76;60,84;6275,00;1979,23;0,77;1,00;182,88
1951;3757,94;60,61;8772,00;1973,62;6,38;1,00;234,52
1957;3640,18;60,62;8066,00;1979,22;0,78;1,00;225,09
1951;3249,13;60,65;8014,00;1973,65;6,35;1,00;204,30
1919;3952,41;61,71;8294,00;1976,62;3,38;1,00;235,87
2028;3260,92;58,44;8068,00;1977,67;2,33;1,00;211,98
1965;3683,89;60,30;7380,00;1975,32;4,68;1,00;219,56
1943;4328,31;60,96;8631,00;1975,53;4,47;1,00;263,28
1944;2967,46;60,96;7291,00;1977,82;2,18;1,00;180,88
1968;3631,07;60,28;8176,00;1979,13;0,87;1,00;225,15
1941;3736,85;61,11;9126,00;1976,95;3,05;1,00;239,97
1958;3214,43;60,59;8153,00;1978,22;1,78;1,00;199,53
1957;4034,96;60,68;9170,00;1979,43;0,57;1,00;259,81
1949;3647,20;60,87;8929,00;1978,93;1,07;1,00;232,81
1935;3766,14;61,32;9440,00;1977,57;2,43;1,00;244,43
1965;4073,83;60,34;9416,00;1978,83;1,17;1,00;264,11
1956;3737,69;60,57;8663,00;1975,18;4,82;1,00;232,66
1921;3961,24;61,61;9490,00;1973,98;6,02;1,00;252,81
1968;3708,26;60,28;8428,00;1977,87;2,13;1,00;230,80
1944;4209,08;60,87;8423,00;1976,13;3,87;1,00;254,91
1910;4287,17;62,11;10165,00;1978,03;1,97;1,00;277,71
1963;3355,17;60,30;7102,00;1974,40;5,60;1,00;200,83
1972;3238,23;60,08;7850,00;1974,63;5,37;1,00;203,85
1961;3254,42;60,50;6624,00;1978,40;1,60;1,00;191,29
1920;3700,47;61,79;9823,00;1979,00;1,00;1,00;243,17
1981;3084,00;59,72;7170,00;1975,47;4,53;1,00;184,94
1959;4141,79;60,52;8808,00;1977,77;2,23;1,00;259,88
1941;4088,26;61,11;9588,00;1978,23;1,77;1,00;256,15
1983;3929,75;59,72;9447,00;1975,03;4,97;1,00;260,79
1969;3412,59;60,05;7661,00;1971,90;8,10;1,00;210,29
1967;3211,00;60,24;6850,00;1975,60;4,40;1,00;193,33
1980;3082,29;59,81;8497,00;1975,43;4,57;1,00;203,68
2013;3154,53;58,92;7434,00;1977,43;2,57;1,00;200,13
1964;3902,74;60,32;8880,00;1975,80;4,20;1,00;247,62
1973;3690,56;60,14;8739,00;1978,03;1,97;1,00;238,50
1973;3390,26;60,10;7715,00;1977,52;2,48;1,00;208,85
1988;3348,12;59,72;8315,00;1979,02;0,98;1,00;216,73
1979;3690,44;59,90;8193,00;1976,85;3,15;1,00;232,92
1963;3016,35;60,43;7634,00;1977,98;2,02;1,00;191,47
1956;3991,35;60,62;8579,00;1978,43;1,57;1,00;244,33
1940;3795,38;61,10;9172,00;1977,63;2,37;1,00;243,83
1958;3598,09;60,49;9236,00;1974,48;5,52;1,00;235,65
1948;3685,93;60,66;8579,00;1970,72;9,28;1,00;234,12
1948;4135,67;60,82;9468,00;1976,43;3,57;1,00;265,81
1972;4658,34;60,12;8295,00;1977,47;2,53;1,00;280,48
1933;4803,09;61,34;10459,00;1977,13;2,87;1,00;311,80
1936;3780,40;61,15;9065,00;1974,52;5,48;1,00;247,62
1924;3468,70;61,69;7761,00;1979,48;0,52;1,00;209,27
1953;3624,26;60,72;8218,00;1978,45;1,55;1,00;225,50
1988;3350,60;59,70;8077,00;1979,92;0,08;1,00;215,76
1939;3648,94;61,22;8550,00;1979,63;0,37;1,00;226,70
1963;3760,65;60,38;7993,00;1976,60;3,40;1,00;231,90
1922;3909,53;61,60;8663,00;1974,70;5,30;1,00;238,08
1973;3168,62;59,81;7836,00;1967,20;12,80;0,99;197,70
1964;3810,33;60,33;9297,00;1976,78;3,22;1,00;249,82
1972;3895,20;60,19;8260,00;1979,45;0,55;1,00;239,15
1976;3383,34;59,84;8888,00;1972,03;7,97;1,00;221,97
1920;3368,35;61,50;8253,00;1968,77;11,23;0,99;208,91
1954;3522,48;60,74;9355,00;1978,35;1,65;1,00;236,08
1915;3962,48;61,85;9604,00;1975,40;4,60;1,00;253,08
1978;4033,76;59,97;9182,00;1978,73;1,27;1,00;259,22
1935;4271,52;61,09;9535,00;1972,68;7,32;1,00;272,46
1942;4763,30;61,10;10718,00;1979,28;0,72;1,00;317,09
1954;3683,39;60,68;8053,00;1976,78;3,22;1,00;228,83
1959;3953,94;60,51;8953,00;1977,22;2,78;1,00;252,72
1940;3384,01;61,15;8320,00;1977,63;2,37;1,00;213,70
1958;3705,68;60,50;9223,00;1975,38;4,62;1,00;235,98
1947;3012,24;60,87;7301,00;1977,50;2,50;1,00;190,09
1962;3482,71;60,48;8700,00;1978,80;1,20;1,00;220,10
1980;2740,02;59,74;6997,00;1972,88;7,12;1,00;171,00
1938;3246,09;61,18;8473,00;1978,42;1,58;1,00;209,51
1946;3895,71;60,91;8549,00;1976,95;3,05;1,00;241,88
1927;3502,52;61,55;7736,00;1977,32;2,68;1,00;211,06
1948;3020,60;60,74;7962,00;1975,03;4,97;1,00;192,64
1964;3252,99;60,30;6985,00;1976,17;3,83;1,00;201,08
1953;4007,54;60,72;8775,00;1978,63;1,37;1,00;249,52
1996;3120,09;59,45;7479,00;1978,30;1,70;1,00;195,40
1948;3556,13;60,86;8667,00;1978,03;1,97;1,00;228,66
1974;3384,72;60,08;7902,00;1979,43;0,57;1,00;214,30
1980;4212,45;59,90;8759,00;1978,47;1,53;1,00;260,40
1927;3178,29;61,55;7791,00;1978,90;1,10;1,00;193,27
1944;3969,72;61,04;8492,00;1978,65;1,35;1,00;242,55
1926;3752,91;61,61;8943,00;1977,80;2,20;1,00;236,54
1977;3755,13;60,03;9569,00;1978,82;1,18;1,00;248,20
1943;3459,66;60,90;8743,00;1973,77;6,23;1,00;225,69
1963;3469,63;60,37;8364,00;1977,88;2,12;1,00;219,12
1968;3159,15;60,17;7722,00;1975,40;4,60;1,00;199,68
1960;3939,17;60,56;8781,00;1978,60;1,40;1,00;252,55
1921;4758,98;61,71;10197,00;1977,08;2,92;1,00;302,57
1964;2175,90;60,23;6235,00;1973,57;6,43;1,00;134,62
1908;3846,07;62,20;8693,00;1979,05;0,95;1,00;236,11
1930;3997,51;61,30;8806,00;1972,33;7,67;1,00;245,52
1898;3710,33;62,34;9670,00;1972,92;7,08;1,00;242,30
1980;2999,61;59,90;7434,00;1979,75;0,25;1,00;192,31
1989;2890,49;59,48;6469,00;1973,13;6,87;1,00;174,29
1933;3510,45;61,37;7484,00;1979,20;0,80;1,00;206,53
1962;3706,64;60,46;8565,00;1978,15;1,85;1,00;229,89
1999;3295,14;59,23;7438,00;1975,42;4,58;1,00;199,23
1973;3566,21;60,15;8229,00;1979,45;0,55;1,00;222,32
