nClientes;tempoMedioDeEsperaClientesEmFila;tempoMedioDeAtendimentoClientesEmCaixa;tempoMaximoEsperaFila;tempoMinutosCaixasTotalOcupadas;tempoMinutosCaixasTotalLivres;taxaOcupacaoCaixasTotal;mediaClientesEspera
2429;17,31;59,89;265,00;2427,50;872,50;0,74;1,67
2348;17,05;61,34;317,00;2401,88;898,12;0,73;1,63
2433;19,55;60,43;255,00;2453,07;846,93;0,74;1,82
2416;20,37;61,89;261,00;2493,68;806,32;0,76;1,83
2408;26,02;62,23;342,00;2499,17;800,83;0,76;2,17
2436;18,18;59,81;213,00;2430,67;869,33;0,74;1,72
2432;19,35;60,08;211,00;2437,73;862,27;0,74;1,77
2415;18,68;61,29;250,00;2467,53;832,47;0,75;1,72
2302;14,70;60,62;208,00;2328,37;971,63;0,71;1,51
2371;17,13;60,57;309,00;2394,52;905,48;0,73;1,65
2413;17,43;60,52;181,00;2436,55;863,45;0,74;1,65
2439;22,55;61,08;282,00;2485,38;814,62;0,75;1,95
2386;21,44;59,89;379,00;2382,25;917,75;0,72;1,91
2357;16,95;60,98;273,00;2400,53;899,47;0,73;1,64
2488;21,36;60,60;291,00;2513,00;787,00;0,76;1,89
2494;26,72;60,08;373,00;2499,25;800,75;0,76;2,27
2366;18,86;60,95;229,00;2408,67;891,33;0,73;1,73
2475;21,75;61,83;301,00;2552,33;747,67;0,77;1,96
2454;23,94;61,61;373,00;2520,68;779,32;0,76;2,06
2409;22,40;61,40;317,00;2467,93;832,07;0,75;1,94
2380;15,75;60,58;242,00;2403,27;896,73;0,73;1,56
2414;18,31;60,81;288,00;2447,68;852,32;0,74;1,76
2376;18,64;60,82;301,00;2409,30;890,70;0,73;1,73
2342;14,53;59,80;237,00;2337,03;962,97;0,71;1,54
2421;22,82;61,05;270,00;2465,23;834,77;0,75;1,97
2441;18,77;60,40;304,00;2458,00;842,00;0,74;1,77
2464;16,40;60,21;200,00;2474,35;825,65;0,75;1,62
2409;18,89;60,59;208,00;2434,60;865,40;0,74;1,75
2448;28,18;61,68;374,00;2519,48;780,52;0,76;2,31
2522;24,80;60,65;296,00;2552,08;747,92;0,77;2,12
2461;18,85;59,91;249,00;2458,72;841,28;0,75;1,75
2433;20,47;59,52;257,00;2416,27;883,73;0,73;1,85
2399;19,74;60,67;248,00;2428,25;871,75;0,74;1,79
2471;21,27;60,26;223,00;2483,98;816,02;0,75;1,92
2472;20,37;60,46;278,00;2493,25;806,75;0,76;1,87
2449;21,86;60,93;259,00;2488,40;811,60;0,75;1,93
2443;22,41;61,72;249,00;2515,27;784,73;0,76;1,93
2471;20,52;60,81;228,00;2504,58;795,42;0,76;1,85
2444;18,46;60,39;238,00;2461,25;838,75;0,75;1,75
2390;19,06;60,98;349,00;2429,20;870,80;0,74;1,76
2487;19,24;59,35;251,00;2460,87;839,13;0,75;1,79
2450;23,21;61,13;257,00;2498,42;801,58;0,76;2,00
2407;18,77;60,95;256,00;2446,72;853,28;0,74;1,74
2342;14,53;60,68;199,00;2370,65;929,35;0,72;1,50
2353;16,83;60,57;250,00;2376,95;923,05;0,72;1,62
2467;24,03;60,15;323,00;2474,87;825,13;0,75;2,06
2339;17,20;60,93;218,00;2378,37;921,63;0,72;1,65
2426;23,75;61,23;281,00;2479,75;820,25;0,75;2,01
2395;19,21;60,88;266,00;2430,40;869,60;0,74;1,75
2483;20,59;60,11;231,00;2489,03;810,97;0,75;1,85
2450;17,97;61,18;229,00;2500,28;799,72;0,76;1,68
2389;13,93;59,35;178,00;2363,18;936,82;0,72;1,49
2340;17,93;60,92;219,00;2377,78;922,22;0,72;1,67
2374;15,67;59,56;201,00;2357,95;942,05;0,71;1,57
2461;24,28;61,90;333,00;2539,98;760,02;0,77;2,07
2439;17,84;59,73;313,00;2430,67;869,33;0,74;1,72
2415;18,61;60,78;222,00;2447,93;852,07;0,74;1,74
2456;18,18;60,03;192,00;2457,57;842,43;0,74;1,70
2434;21,98;60,97;246,00;2475,07;824,93;0,75;1,92
2389;17,54;60,58;280,00;2413,65;886,35;0,73;1,68
2425;19,93;60,54;298,00;2447,63;852,37;0,74;1,82
2374;16,26;60,58;210,00;2399,40;900,60;0,73;1,61
2387;15,24;59,95;194,00;2386,30;913,70;0,72;1,58
2446;21,73;61,07;295,00;2490,90;809,10;0,75;1,90
2451;26,53;61,69;384,00;2524,17;775,83;0,76;2,24
2455;22,83;61,23;251,00;2507,80;792,20;0,76;1,98
2338;16,83;62,26;303,00;2426,08;873,92;0,74;1,62
2363;16,95;59,95;335,00;2362,38;937,62;0,72;1,66
2420;19,09;60,63;218,00;2448,47;851,53;0,74;1,76
2372;14,60;59,52;213,00;2354,08;945,92;0,71;1,53
2404;15,84;61,03;246,00;2447,35;852,65;0,74;1,61
2527;27,96;60,93;295,00;2570,38;729,62;0,78;2,31
2413;17,56;60,22;215,00;2425,30;874,70;0,73;1,70
2283;13,52;60,36;160,00;2300,38;999,62;0,70;1,48
2350;16,65;60,61;272,00;2375,75;924,25;0,72;1,64
2398;17,86;61,03;253,00;2439,48;860,52;0,74;1,69
2512;17,41;60,13;228,00;2519,60;780,40;0,76;1,69
2426;21,35;60,77;320,00;2459,47;840,53;0,75;1,92
2423;20,73;61,08;271,00;2467,50;832,50;0,75;1,86
2443;21,27;60,60;318,00;2467,73;832,27;0,75;1,90
2496;19,06;60,76;345,00;2529,42;770,58;0,77;1,78
2366;19,29;61,01;226,00;2406,82;893,18;0,73;1,74
2363;20,24;62,33;304,00;2454,97;845,03;0,74;1,79
2398;18,17;61,51;250,00;2459,52;840,48;0,75;1,72
2330;18,19;60,87;263,00;2364,13;935,87;0,72;1,70
2431;18,61;59,72;242,00;2420,30;879,70;0,73;1,77
2383;17,89;60,18;237,00;2392,15;907,85;0,72;1,72
2290;13,67;60,93;181,00;2326,37;973,63;0,70;1,46
2438;21,35;61,18;273,00;2489,47;810,53;0,75;1,90
2507;25,41;60,08;503,00;2511,55;788,45;0,76;2,16
2280;16,75;61,31;313,00;2330,48;969,52;0,71;1,60
2396;17,49;59,99;230,00;2396,57;903,43;0,73;1,68
2364;19,12;60,73;346,00;2393,35;906,65;0,73;1,76
2402;16,95;60,40;328,00;2418,52;881,48;0,73;1,68
2380;18,06;59,87;243,00;2376,65;923,35;0,72;1,72
2444;23,43;61,06;258,00;2487,78;812,22;0,75;2,01
2405;20,46;61,86;275,00;2481,25;818,75;0,75;1,83
2385;14,67;59,64;228,00;2371,87;928,13;0,72;1,51
2485;22,73;61,58;418,00;2552,80;747,20;0,77;1,98
2401;17,68;60,89;224,00;2437,93;862,07;0,74;1,67
